commit e8d55838b9f283db483da1388f37bcbd1ddbe6c1
Author: Tycho887 <michaelrj03@gmail.com>
Date:   Fri Nov 10 15:18:22 2023 +0100

    added version number

commit 46f59ca359eaa65612e3200ee8827e96abb23d07
Author: Fabian Heflo <fheflo@gmail.com>
Date:   Fri Nov 10 15:16:17 2023 +0100

    comments

commit 17eefb099bc5027f700d3eca8390eb573c1f82ff
Author: Tycho887 <michaelrj03@gmail.com>
Date:   Fri Nov 3 15:23:46 2023 +0100

    Added pattern generator

commit 34d4cfd7abd1d1baa3009771cb02f98f7942a322
Author: Tycho887 <michaelrj03@gmail.com>
Date:   Fri Nov 3 15:07:05 2023 +0100

    First commit!

commit 45347c90788c5b7d1648be16762130136155f5e8
Author: Michael Johansen <michael.ruben.johansen@nmbu.no>
Date:   Fri Nov 3 14:05:14 2023 +0000

    Initial commit
